Loadcell/ElectricalComponentsTesting/sessions/20241001/data/SCK_arduino_uno_r3.csv

Record Length,Analog:700000,
Sample Interval,Analog:2.000000E-09,
Vertical Units,CH1:V,,
Vertical Scale,CH1:+2.000000E+00,,
Vertical Offset,CH1:+0.000000E+00,,
Horizontal Units,us,
Horizontal Scale,+2.000000E+02,
Model Number,SDS1202X-E,
Serial Number,SDS1EDEQ6R8765,
Software Version,1.3.27,
Source,CH1
Second,Value
+1.021020E-01,+8.000000E-02
+1.021020E-01,+8.000000E-02
+1.021020E-01,+0.000000E+00
+1.021020E-01,+8.000000E-02
+1.021020E-01,+1.600000E-01
+1.021020E-01,+8.000000E-02
+1.021020E-01,+0.000000E+00
+1.021020E-01,+8.000000E-02
+1.021020E-01,+8.000000E-02
+1.021020E-01,+0.000000E+00
+1.021020E-01,+0.000000E+00
+1.021020E-01,+8.000000E-02
+1.021020E-01,+8.000000E-02
+1.021020E-01,+0.000000E+00
+1.021020E-01,+8.000000E-02
+1.021020E-01,-8.000000E-02
+1.021020E-01,+8.000000E-02
+1.021020E-01,+8.000000E-02
+1.021020E-01,+8.000000E-02
+1.021020E-01,+8.000000E-02
+1.021020E-01,+0.000000E+00
+1.021020E-01,+1.600000E-01
+1.021020E-01,+0.000000E+00
+1.021020E-01,+0.000000E+00
+1.021020E-01,+8.000000E-02
+1.021020E-01,+8.000000E-02
+1.021021E-01,+0.000000E+00
+1.021021E-01,-8.000000E-02
+1.021021E-01,+0.000000E+00
+1.021021E-01,+0.000000E+00
+1.021021E-01,+0.000000E+00
+1.021021E-01,+0.000000E+00
+1.021021E-01,+0.000000E+00
+1.021021E-01,+8.000000E-02
+1.021021E-01,+8.000000E-02
+1.021021E-01,+8.000000E-02
+1.021021E-01,+0.000000E+00
+1.021021E-01,+0.000000E+00
+1.021021E-01,+8.000000E-02
+1.021021E-01,+8.000000E-02
+1.021021E-01,+8.000000E-02
+1.021021E-01,+0.000000E+00
+1.021021E-01,-8.000000E-02
+1.021021E-01,+0.000000E+00
+1.021021E-01,+8.000000E-02
+1.021021E-01,+8.000000E-02
+1.021021E-01,+0.000000E+00
+1.021021E-01,+0.000000E+00
+1.021021E-01,+0.000000E+00
+1.021021E-01,+0.000000E+00
+1.021021E-01,+0.000000E+00
+1.021021E-01,+8.000000E-02
+1.021021E-01,+0.000000E+00
+1.021021E-01,+8.000000E-02
+1.021021E-01,+8.000000E-02
+1.021021E-01,+0.000000E+00
+1.021021E-01,+8.000000E-02
+1.021021E-01,-8.000000E-02
+1.021021E-01,+8.000000E-02
+1.021021E-01,-8.000000E-02
+1.021021E-01,+0.000000E+00
+1.021021E-01,-8.000000E-02
+1.021021E-01,+8.000000E-02
+1.021021E-01,+0.000000E+00
+1.021021E-01,+0.000000E+00
+1.021021E-01,+8.000000E-02
+1.021021E-01,+8.000000E-02
+1.021021E-01,+0.000000E+00
+1.021021E-01,+0.000000E+00
+1.021021E-01,+8.000000E-02
+1.021021E-01,+8.000000E-02
+1.021021E-01,+8.000000E-02
+1.021021E-01,+0.000000E+00
+1.021021E-01,+0.000000E+00
+1.021021E-01,+8.000000E-02
+1.021022E-01,+0.000000E+00
+1.021022E-01,+8.000000E-02
+1.021022E-01,+8.000000E-02
+1.021022E-01,+0.000000E+00
+1.021022E-01,+8.000000E-02
+1.021022E-01,+0.000000E+00
+1.021022E-01,+8.000000E-02
+1.021022E-01,+8.000000E-02
+1.021022E-01,+0.000000E+00
+1.021022E-01,+8.000000E-02
+1.021022E-01,+8.000000E-02
+1.021022E-01,-8.000000E-02
+1.021022E-01,+8.000000E-02
+1.021022E-01,+0.000000E+00
+1.021022E-01,+0.000000E+00
+1.021022E-01,+8.000000E-02
+1.021022E-01,+8.000000E-02
+1.021022E-01,+0.000000E+00
+1.021022E-01,+8.000000E-02
+1.021022E-01,+0.000000E+00
+1.021022E-01,+8.000000E-02
+1.021022E-01,+8.000000E-02
+1.021022E-01,+0.000000E+00
+1.021022E-01,+1.600000E-01
+1.021022E-01,-8.000000E-02
+1.021022E-01,+8.000000E-02
+1.021022E-01,+0.000000E+00
+1.021022E-01,+8.000000E-02
+1.021022E-01,+8.000000E-02
+1.021022E-01,+0.000000E+00
+1.021022E-01,-8.000000E-02
+1.021022E-01,+1.600000E-01
+1.021022E-01,+8.000000E-02
+1.021022E-01,+8.000000E-02
+1.021022E-01,+8.000000E-02
+1.021022E-01,-8.000000E-02
+1.021022E-01,+0.000000E+00
+1.021022E-01,+0.000000E+00
+1.021022E-01,+0.000000E+00
+1.021022E-01,+8.000000E-02
+1.021022E-01,+0.000000E+00
+1.021022E-01,+0.000000E+00
+1.021022E-01,+0.000000E+00
+1.021022E-01,+8.000000E-02
+1.021022E-01,-8.000000E-02
+1.021022E-01,+0.000000E+00
+1.021022E-01,+0.000000E+00
+1.021022E-01,+0.000000E+00
+1.021022E-01,+0.000000E+00
+1.021022E-01,+8.000000E-02
+1.021022E-01,-8.000000E-02
+1.021023E-01,+0.000000E+00
+1.021023E-01,+8.000000E-02
+1.021023E-01,+0.000000E+00
+1.021023E-01,+0.000000E+00
+1.021023E-01,+0.000000E+00
+1.021023E-01,+0.000000E+00
+1.021023E-01,+8.000000E-02
+1.021023E-01,+0.000000E+00
+1.021023E-01,+0.000000E+00
+1.021023E-01,-8.000000E-02
+1.021023E-01,+0.000000E+00
+1.021023E-01,+0.000000E+00
+1.021023E-01,-8.000000E-02
+1.021023E-01,+8.000000E-02
+1.021023E-01,+8.000000E-02
+1.021023E-01,+8.000000E-02
+1.021023E-01,+8.000000E-02
+1.021023E-01,+8.000000E-02
+1.021023E-01,+8.000000E-02
+1.021023E-01,+8.000000E-02
+1.021023E-01,+8.000000E-02
+1.021023E-01,+0.000000E+00
+1.021023E-01,+8.000000E-02
+1.021023E-01,+0.000000E+00
+1.021023E-01,+0.000000E+00
+1.021023E-01,+8.000000E-02
+1.021023E-01,+0.000000E+00
+1.021023E-01,+8.000000E-02
+1.021023E-01,+8.000000E-02
+1.021023E-01,+0.000000E+00
+1.021023E-01,+8.000000E-02
+1.021023E-01,+0.000000E+00
+1.021023E-01,+0.000000E+00
+1.021023E-01,+8.000000E-02
+1.021023E-01,+8.000000E-02
+1.021023E-01,+8.000000E-02
+1.021023E-01,-8.000000E-02
+1.021023E-01,+1.600000E-01
+1.021023E-01,-8.000000E-02
+1.021023E-01,+8.000000E-02
+1.021023E-01,+8.000000E-02
+1.021023E-01,-8.000000E-02
+1.021023E-01,+8.000000E-02
+1.021023E-01,+0.000000E+00
+1.021023E-01,+0.000000E+00
+1.021023E-01,+8.000000E-02
+1.021023E-01,+0.000000E+00
+1.021023E-01,+0.000000E+00
+1.021023E-01,+0.000000E+00
+1.021023E-01,+8.000000E-02
+1.021024E-01,+1.600000E-01
+1.021024E-01,+8.000000E-02
+1.021024E-01,+8.000000E-02
+1.021024E-01,+0.000000E+00
+1.021024E-01,+8.000000E-02
+1.021024E-01,+0.000000E+00
+1.021024E-01,+0.000000E+00
+1.021024E-01,+8.000000E-02
+1.021024E-01,+0.000000E+00
+1.021024E-01,+0.000000E+00
+1.021024E-01,+0.000000E+00
+1.021024E-01,+8.000000E-02
+1.021024E-01,+8.000000E-02
+1.021024E-01,+0.000000E+00
+1.021024E-01,+8.000000E-02
+1.021024E-01,+8.000000E-02
+1.021024E-01,+8.000000E-02
+1.021024E-01,+8.000000E-02
+1.021024E-01,+0.000000E+00
+1.021024E-01,+0.000000E+00
+1.021024E-01,+8.000000E-02
+1.021024E-01,+8.000000E-02
+1.021024E-01,+8.000000E-02
+1.021024E-01,+8.000000E-02
+1.021024E-01,+0.000000E+00
+1.021024E-01,+8.000000E-02
+1.021024E-01,+0.000000E+00
+1.021024E-01,+8.000000E-02
+1.021024E-01,+8.000000E-02
+1.021024E-01,+0.000000E+00
+1.021024E-01,+0.000000E+00
+1.021024E-01,+0.000000E+00
+1.021024E-01,+8.000000E-02
+1.021024E-01,+0.000000E+00
+1.021024E-01,+0.000000E+00
+1.021024E-01,+0.000000E+00
+1.021024E-01,+8.000000E-02
+1.021024E-01,+8.000000E-02
+1.021024E-01,+8.000000E-02
+1.021024E-01,+0.000000E+00
+1.021024E-01,+0.000000E+00
+1.021024E-01,+8.000000E-02
+1.021024E-01,+0.000000E+00
+1.021024E-01,+0.000000E+00
+1.021024E-01,+0.000000E+00
+1.021024E-01,+0.000000E+00
+1.021024E-01,+0.000000E+00
+1.021024E-01,-8.000000E-02
+1.021024E-01,+0.000000E+00
+1.021024E-01,-8.000000E-02
+1.021025E-01,+0.000000E+00
+1.021025E-01,-8.000000E-02
+1.021025E-01,+8.000000E-02
+1.021025E-01,+8.000000E-02
+1.021025E-01,+0.000000E+00
+1.021025E-01,+0.000000E+00
+1.021025E-01,+8.000000E-02
+1.021025E-01,+0.000000E+00
+1.021025E-01,+8.000000E-02
+1.021025E-01,-8.000000E-02
+1.021025E-01,+0.000000E+00
+1.021025E-01,+8.000000E-02
+1.021025E-01,+8.000000E-02
+1.021025E-01,-8.000000E-02
+1.021025E-01,-8.000000E-02
+1.021025E-01,+0.000000E+00
+1.021025E-01,+8.000000E-02
+1.021025E-01,-8.000000E-02
+1.021025E-01,+0.000000E+00
+1.021025E-01,+8.000000E-02
+1.021025E-01,+8.000000E-02
+1.021025E-01,+1.600000E-01
+1.021025E-01,+0.000000E+00
+1.021025E-01,+0.000000E+00
+1.021025E-01,+8.000000E-02
+1.021025E-01,+1.600000E-01
+1.021025E-01,+1.600000E-01
+1.021025E-01,+8.000000E-02
+1.021025E-01,+8.000000E-02
+1.021025E-01,+0.000000E+00
+1.021025E-01,+8.000000E-02
+1.021025E-01,+0.000000E+00
+1.021025E-01,+8.000000E-02
+1.021025E-01,+0.000000E+00
+1.021025E-01,-8.000000E-02
+1.021025E-01,+0.000000E+00
+1.021025E-01,+0.000000E+00
+1.021025E-01,+0.000000E+00
+1.021025E-01,+0.000000E+00
+1.021025E-01,+1.600000E-01
+1.021025E-01,+8.000000E-02
+1.021025E-01,+8.000000E-02
+1.021025E-01,+0.000000E+00
+1.021025E-01,+0.000000E+00
+1.021025E-01,+8.000000E-02
+1.021025E-01,-8.000000E-02
+1.021025E-01,+0.000000E+00
+1.021025E-01,+8.000000E-02
+1.021025E-01,+0.000000E+00
+1.021026E-01,+0.000000E+00
+1.021026E-01,+8.000000E-02
+1.021026E-01,+0.000000E+00
+1.021026E-01,+8.000000E-02
+1.021026E-01,+8.000000E-02
+1.021026E-01,-8.000000E-02
+1.021026E-01,+8.000000E-02
+1.021026E-01,+8.000000E-02
+1.021026E-01,+8.000000E-02
+1.021026E-01,+8.000000E-02
+1.021026E-01,+0.000000E+00
+1.021026E-01,+0.000000E+00
+1.021026E-01,+0.000000E+00
+1.021026E-01,+8.000000E-02
+1.021026E-01,+0.000000E+00
+1.021026E-01,+0.000000E+00
+1.021026E-01,+8.000000E-02
+1.021026E-01,+0.000000E+00
+1.021026E-01,+0.000000E+00
+1.021026E-01,+8.000000E-02
+1.021026E-01,+8.000000E-02
+1.021026E-01,+8.000000E-02
+1.021026E-01,+8.000000E-02
+1.021026E-01,+8.000000E-02
+1.021026E-01,+0.000000E+00
+1.021026E-01,+8.000000E-02
+1.021026E-01,+8.000000E-02
+1.021026E-01,+8.000000E-02
+1.021026E-01,+8.000000E-02
+1.021026E-01,+0.000000E+00
+1.021026E-01,+0.000000E+00
+1.021026E-01,+0.000000E+00
+1.021026E-01,+8.000000E-02
+1.021026E-01,+8.000000E-02
+1.021026E-01,+8.000000E-02
+1.021026E-01,+8.000000E-02
+1.021026E-01,+0.000000E+00
+1.021026E-01,+8.000000E-02
+1.021026E-01,+0.000000E+00
+1.021026E-01,+8.000000E-02
+1.021026E-01,+8.000000E-02
+1.021026E-01,+0.000000E+00
+1.021026E-01,+0.000000E+00
+1.021026E-01,+8.000000E-02
+1.021026E-01,+8.000000E-02
+1.021026E-01,+1.600000E-01
+1.021026E-01,+0.000000E+00
+1.021026E-01,+8.000000E-02
+1.021026E-01,+8.000000E-02
+1.021026E-01,+8.000000E-02
+1.021027E-01,+8.000000E-02
+1.021027E-01,+0.000000E+00
+1.021027E-01,+8.000000E-02
+1.021027E-01,+8.000000E-02
+1.021027E-01,+8.000000E-02
+1.021027E-01,+0.000000E+00
+1.021027E-01,-8.000000E-02
+1.021027E-01,+8.000000E-02
+1.021027E-01,+8.000000E-02
+1.021027E-01,+0.000000E+00
+1.021027E-01,+0.000000E+00
+1.021027E-01,+0.000000E+00
+1.021027E-01,+1.600000E-01
+1.021027E-01,-8.000000E-02
+1.021027E-01,+8.000000E-02
+1.021027E-01,+0.000000E+00
+1.021027E-01,+8.000000E-02
+1.021027E-01,+0.000000E+00
+1.021027E-01,+0.000000E+00
+1.021027E-01,+0.000000E+00
+1.021027E-01,+0.000000E+00
+1.021027E-01,+1.600000E-01
+1.021027E-01,+0.000000E+00
+1.021027E-01,+0.000000E+00
+1.021027E-01,+8.000000E-02
+1.021027E-01,+0.000000E+00
+1.021027E-01,+0.000000E+00
+1.021027E-01,+0.000000E+00
+1.021027E-01,+8.000000E-02
+1.021027E-01,+8.000000E-02
+1.021027E-01,-8.000000E-02
+1.021027E-01,+0.000000E+00
+1.021027E-01,+8.000000E-02
+1.021027E-01,+0.000000E+00
+1.021027E-01,+0.000000E+00
+1.021027E-01,+0.000000E+00
+1.021027E-01,+0.000000E+00
+1.021027E-01,+8.000000E-02
+1.021027E-01,+0.000000E+00
+1.021027E-01,+0.000000E+00
+1.021027E-01,+0.000000E+00
+1.021027E-01,-8.000000E-02
+1.021027E-01,+0.000000E+00
+1.021027E-01,-8.000000E-02
+1.021027E-01,+8.000000E-02
+1.021027E-01,+0.000000E+00
+1.021027E-01,+0.000000E+00
+1.021027E-01,+0.000000E+00
+1.021027E-01,+8.000000E-02
+1.021027E-01,+8.000000E-02
+1.021027E-01,+0.000000E+00
+1.021028E-01,+0.000000E+00
+1.021028E-01,+8.000000E-02
+1.021028E-01,+0.000000E+00
+1.021028E-01,+8.000000E-02
+1.021028E-01,+0.000000E+00
+1.021028E-01,+8.000000E-02
+1.021028E-01,+8.000000E-02
+1.021028E-01,+0.000000E+00
+1.021028E-01,+8.000000E-02
+1.021028E-01,+8.000000E-02
+1.021028E-01,+8.000000E-02
+1.021028E-01,+8.000000E-02
+1.021028E-01,+0.000000E+00
+1.021028E-01,+8.000000E-02
+1.021028E-01,+8.000000E-02
+1.021028E-01,+8.000000E-02
+1.021028E-01,+8.000000E-02
+1.021028E-01,+0.000000E+00
+1.021028E-01,+0.000000E+00
+1.021028E-01,+8.000000E-02
+1.021028E-01,+8.000000E-02
+1.021028E-01,+0.000000E+00
+1.021028E-01,+0.000000E+00
+1.021028E-01,+0.000000E+00
+1.021028E-01,+1.600000E-01
+1.021028E-01,+8.000000E-02
+1.021028E-01,+8.000000E-02
+1.021028E-01,+0.000000E+00
+1.021028E-01,+0.000000E+00
+1.021028E-01,+0.000000E+00
+1.021028E-01,+0.000000E+00
+1.021028E-01,+0.000000E+00
+1.021028E-01,+0.000000E+00
+1.021028E-01,+0.000000E+00
+1.021028E-01,+1.600000E-01
+1.021028E-01,+0.000000E+00
+1.021028E-01,+0.000000E+00
+1.021028E-01,+8.000000E-02
+1.021028E-01,+0.000000E+00
+1.021028E-01,+0.000000E+00
+1.021028E-01,+0.000000E+00
+1.021028E-01,+1.600000E-01
+1.021028E-01,+8.000000E-02
+1.021028E-01,-8.000000E-02
+1.021028E-01,+0.000000E+00
+1.021028E-01,+0.000000E+00
+1.021028E-01,+8.000000E-02
+1.021028E-01,+0.000000E+00
+1.021028E-01,+0.000000E+00
+1.021028E-01,-8.000000E-02
+1.021029E-01,+8.000000E-02
+1.021029E-01,+0.000000E+00
+1.021029E-01,+0.000000E+00
+1.021029E-01,-8.000000E-02
+1.021029E-01,+0.000000E+00
+1.021029E-01,+0.000000E+00
+1.021029E-01,+0.000000E+00
+1.021029E-01,+8.000000E-02
+1.021029E-01,+0.000000E+00
+1.021029E-01,+8.000000E-02
+1.021029E-01,+0.000000E+00
+1.021029E-01,+0.000000E+00
+1.021029E-01,+8.000000E-02
+1.021029E-01,+0.000000E+00
+1.021029E-01,+8.000000E-02
+1.021029E-01,+8.000000E-02
+1.021029E-01,+0.000000E+00
+1.021029E-01,+8.000000E-02
+1.021029E-01,-8.000000E-02
+1.021029E-01,-8.000000E-02
+1.021029E-01,+8.000000E-02
+1.021029E-01,+0.000000E+00
+1.021029E-01,+8.000000E-02
+1.021029E-01,+8.000000E-02
+1.021029E-01,+8.000000E-02
+1.021029E-01,+8.000000E-02
+1.021029E-01,+0.000000E+00
+1.021029E-01,+8.000000E-02
+1.021029E-01,+8.000000E-02
+1.021029E-01,+0.000000E+00
+1.021029E-01,+8.000000E-02
+1.021029E-01,+0.000000E+00
+1.021029E-01,+0.000000E+00
+1.021029E-01,+0.000000E+00
+1.021029E-01,+8.000000E-02
+1.021029E-01,+0.000000E+00
+1.021029E-01,+0.000000E+00
+1.021029E-01,+0.000000E+00
+1.021029E-01,+8.000000E-02
+1.021029E-01,-8.000000E-02
+1.021029E-01,+8.000000E-02
+1.021029E-01,+0.000000E+00
+1.021029E-01,+8.000000E-02
+1.021029E-01,+0.000000E+00
+1.021029E-01,+8.000000E-02
+1.021029E-01,+0.000000E+00
+1.021029E-01,-8.000000E-02
+1.021029E-01,+8.000000E-02
+1.021029E-01,+8.000000E-02
+1.021029E-01,-8.000000E-02
+1.021030E-01,+0.000000E+00
+1.021030E-01,+8.000000E-02
+1.021030E-01,+0.000000E+00
+1.021030E-01,+0.000000E+00
+1.021030E-01,+0.000000E+00
+1.021030E-01,+8.000000E-02
+1.021030E-01,+8.000000E-02
+1.021030E-01,+0.000000E+00
+1.021030E-01,+8.000000E-02
+1.021030E-01,+8.000000E-02
+1.021030E-01,+8.000000E-02
+1.021030E-01,+0.000000E+00
+1.021030E-01,+0.000000E+00
+1.021030E-01,+0.000000E+00
+1.021030E-01,+8.000000E-02
+1.021030E-01,+8.000000E-02
+1.021030E-01,+0.000000E+00
+1.021030E-01,+0.000000E+00
+1.021030E-01,+0.000000E+00
+1.021030E-01,+0.000000E+00
+1.021030E-01,+8.000000E-02
+1.021030E-01,+8.000000E-02
+1.021030E-01,-8.000000E-02
+1.021030E-01,+8.000000E-02
+1.021030E-01,+0.000000E+00
+1.021030E-01,+8.000000E-02
+1.021030E-01,+8.000000E-02
+1.021030E-01,+8.000000E-02
+1.021030E-01,+8.000000E-02
+1.021030E-01,+8.000000E-02
+1.021030E-01,+0.000000E+00
+1.021030E-01,+8.000000E-02
+1.021030E-01,+8.000000E-02
+1.021030E-01,+0.000000E+00
+1.021030E-01,+8.000000E-02
+1.021030E-01,-8.000000E-02
+1.021030E-01,+8.000000E-02
+1.021030E-01,+0.000000E+00
+1.021030E-01,+8.000000E-02
+1.021030E-01,+8.000000E-02
+1.021030E-01,+0.000000E+00
+1.021030E-01,+8.000000E-02
+1.021030E-01,+8.000000E-02
+1.021030E-01,+0.000000E+00
+1.021030E-01,+8.000000E-02
+1.021030E-01,+8.000000E-02
+1.021030E-01,+0.000000E+00
+1.021030E-01,+8.000000E-02
+1.021030E-01,+0.000000E+00
+1.021031E-01,+0.000000E+00
+1.021031E-01,+8.000000E-02
+1.021031E-01,+8.000000E-02
+1.021031E-01,+8.000000E-02
+1.021031E-01,+8.000000E-02
+1.021031E-01,+8.000000E-02
+1.021031E-01,+1.600000E-01
+1.021031E-01,+8.000000E-02
+1.021031E-01,+8.000000E-02
+1.021031E-01,+8.000000E-02
+1.021031E-01,+0.000000E+00
+1.021031E-01,+8.000000E-02
+1.021031E-01,+0.000000E+00
+1.021031E-01,+0.000000E+00
+1.021031E-01,+0.000000E+00
+1.021031E-01,+0.000000E+00
+1.021031E-01,+0.000000E+00
+1.021031E-01,+0.000000E+00
+1.021031E-01,+8.000000E-02
+1.021031E-01,+0.000000E+00
+1.021031E-01,+8.000000E-02
+1.021031E-01,+8.000000E-02
+1.021031E-01,+8.000000E-02
+1.021031E-01,+0.000000E+00
+1.021031E-01,+8.000000E-02
+1.021031E-01,+8.000000E-02
+1.021031E-01,+0.000000E+00
+1.021031E-01,+8.000000E-02
+1.021031E-01,+0.000000E+00
+1.021031E-01,+8.000000E-02
+1.021031E-01,+8.000000E-02
+1.021031E-01,+0.000000E+00
+1.021031E-01,+8.000000E-02
+1.021031E-01,+0.000000E+00
+1.021031E-01,+0.000000E+00
+1.021031E-01,+8.000000E-02
+1.021031E-01,+8.000000E-02
+1.021031E-01,+0.000000E+00
+1.021031E-01,+8.000000E-02
+1.021031E-01,+0.000000E+00
+1.021031E-01,+8.000000E-02
+1.021031E-01,+8.000000E-02
+1.021031E-01,+8.000000E-02
+1.021031E-01,+8.000000E-02
+1.021031E-01,+8.000000E-02
+1.021031E-01,+0.000000E+00
+1.021031E-01,+0.000000E+00
+1.021031E-01,+8.000000E-02
+1.021031E-01,+0.000000E+00
+1.021031E-01,+8.000000E-02
+1.021032E-01,+8.000000E-02
+1.021032E-01,+0.000000E+00
+1.021032E-01,+8.000000E-02
+1.021032E-01,+8.000000E-02
+1.021032E-01,+8.000000E-02
+1.021032E-01,+8.000000E-02
+1.021032E-01,-8.000000E-02
+1.021032E-01,+0.000000E+00
+1.021032E-01,+0.000000E+00
+1.021032E-01,+8.000000E-02
+1.021032E-01,+0.000000E+00
+1.021032E-01,+0.000000E+00
+1.021032E-01,+8.000000E-02
+1.021032E-01,+0.000000E+00
+1.021032E-01,+0.000000E+00
+1.021032E-01,+8.000000E-02
+1.021032E-01,+8.000000E-02
+1.021032E-01,+8.000000E-02
+1.021032E-01,+8.000000E-02
+1.021032E-01,+0.000000E+00
+1.021032E-01,+8.000000E-02
+1.021032E-01,+1.600000E-01
+1.021032E-01,+8.000000E-02
+1.021032E-01,+8.000000E-02
+1.021032E-01,+0.000000E+00
+1.021032E-01,+8.000000E-02
+1.021032E-01,+0.000000E+00
+1.021032E-01,+8.000000E-02
+1.021032E-01,+8.000000E-02
+1.021032E-01,+8.000000E-02
+1.021032E-01,+0.000000E+00
+1.021032E-01,+8.000000E-02
+1.021032E-01,+0.000000E+00
+1.021032E-01,+8.000000E-02
+1.021032E-01,+0.000000E+00
+1.021032E-01,+8.000000E-02
+1.021032E-01,+8.000000E-02
+1.021032E-01,+0.000000E+00
+1.021032E-01,+0.000000E+00
+1.021032E-01,+0.000000E+00
+1.021032E-01,+8.000000E-02
+1.021032E-01,+0.000000E+00
+1.021032E-01,+0.000000E+00
+1.021032E-01,+8.000000E-02
+1.021032E-01,+8.000000E-02
+1.021032E-01,+1.600000E-01
+1.021032E-01,+8.000000E-02
+1.021032E-01,+0.000000E+00
+1.021032E-01,+0.000000E+00
+1.021032E-01,+8.000000E-02
+1.021032E-01,+0.000000E+00
+1.021033E-01,+0.000000E+00
+1.021033E-01,+8.000000E-02
+1.021033E-01,+8.000000E-02
+1.021033E-01,+8.000000E-02
+1.021033E-01,-8.000000E-02
+1.021033E-01,+0.000000E+00
+1.021033E-01,+0.000000E+00
+1.021033E-01,+0.000000E+00
+1.021033E-01,+0.000000E+00
+1.021033E-01,+0.000000E+00
+1.021033E-01,+0.000000E+00
+1.021033E-01,+0.000000E+00
+1.021033E-01,+0.000000E+00
+1.021033E-01,+0.000000E+00
+1.021033E-01,+0.000000E+00
+1.021033E-01,+0.000000E+00
+1.021033E-01,+8.000000E-02
+1.021033E-01,+0.000000E+00
+1.021033E-01,+0.000000E+00
+1.021033E-01,+8.000000E-02
+1.021033E-01,+0.000000E+00
+1.021033E-01,+0.000000E+00
+1.021033E-01,+0.000000E+00
+1.021033E-01,+8.000000E-02
+1.021033E-01,+1.600000E-01
+1.021033E-01,+1.600000E-01
+1.021033E-01,+0.000000E+00
+1.021033E-01,+8.000000E-02
+1.021033E-01,+8.000000E-02
+1.021033E-01,+0.000000E+00
+1.021033E-01,+8.000000E-02
+1.021033E-01,+0.000000E+00
+1.021033E-01,+8.000000E-02
+1.021033E-01,+0.000000E+00
+1.021033E-01,+0.000000E+00
+1.021033E-01,+8.000000E-02
+1.021033E-01,+0.000000E+00
+1.021033E-01,+1.600000E-01
+1.021033E-01,+0.000000E+00
+1.021033E-01,+0.000000E+00
+1.021033E-01,+0.000000E+00
+1.021033E-01,+0.000000E+00
+1.021033E-01,+8.000000E-02
+1.021033E-01,+0.000000E+00
+1.021033E-01,+8.000000E-02
+1.021033E-01,+0.000000E+00
+1.021033E-01,+0.000000E+00
+1.021033E-01,+0.000000E+00
+1.021033E-01,+0.000000E+00
+1.021033E-01,+8.000000E-02
+1.021034E-01,-8.000000E-02
+1.021034E-01,+8.000000E-02
+1.021034E-01,+0.000000E+00
+1.021034E-01,+0.000000E+00
+1.021034E-01,+8.000000E-02
+1.021034E-01,+0.000000E+00
+1.021034E-01,+8.000000E-02
+1.021034E-01,+8.000000E-02
+1.021034E-01,+1.600000E-01
+1.021034E-01,+8.000000E-02
+1.021034E-01,+0.000000E+00
+1.021034E-01,+8.000000E-02
+1.021034E-01,+8.000000E-02
+1.021034E-01,+0.000000E+00
+1.021034E-01,+0.000000E+00
+1.021034E-01,+0.000000E+00
+1.021034E-01,+8.000000E-02
+1.021034E-01,+0.000000E+00
+1.021034E-01,+0.000000E+00
+1.021034E-01,+0.000000E+00
+1.021034E-01,-8.000000E-02
+1.021034E-01,+8.000000E-02
+1.021034E-01,+0.000000E+00
+1.021034E-01,+0.000000E+00
+1.021034E-01,+8.000000E-02
+1.021034E-01,+8.000000E-02
